\relax 
\providecommand\HyperFirstAtBeginDocument{\AtBeginDocument}
\HyperFirstAtBeginDocument{\ifx\hyper@anchor\@undefined
\global\let\oldcontentsline\contentsline
\gdef\contentsline#1#2#3#4{\oldcontentsline{#1}{#2}{#3}}
\global\let\oldnewlabel\newlabel
\gdef\newlabel#1#2{\newlabelxx{#1}#2}
\gdef\newlabelxx#1#2#3#4#5#6{\oldnewlabel{#1}{{#2}{#3}}}
\AtEndDocument{\ifx\hyper@anchor\@undefined
\let\contentsline\oldcontentsline
\let\newlabel\oldnewlabel
\fi}
\fi}
\global\let\hyper@last\relax 
\gdef\HyperFirstAtBeginDocument#1{#1}
\providecommand\HyField@AuxAddToFields[1]{}
\@writefile{toc}{\contentsline {section}{\numberline {1}Vanilla GAN}{2}{section.1}}
\@writefile{toc}{\contentsline {subsection}{\numberline {1.1}The structure and algorithm of basic GAN}{2}{subsection.1.1}}
\@writefile{lof}{\contentsline {figure}{\numberline {1}{\ignorespaces The structure of basic GAN\relax }}{2}{figure.caption.2}}
\@writefile{loa}{\contentsline {algorithm}{\numberline {1}{\ignorespaces GAN algorithm\relax }}{2}{algorithm.1}}
\providecommand*\caption@xref[2]{\@setref\relax\@undefined{#1}}
\newlabel{euclid}{{1}{2}{GAN algorithm\relax \relax }{algorithm.1}{}}
\@writefile{toc}{\contentsline {subsection}{\numberline {1.2}Objective function}{3}{subsection.1.2}}
\@writefile{toc}{\contentsline {subsection}{\numberline {1.3}Origin of the obejective function}{3}{subsection.1.3}}
\@writefile{toc}{\contentsline {subsection}{\numberline {1.4}Global optimality}{4}{subsection.1.4}}
\@writefile{toc}{\contentsline {section}{\numberline {2}Conditional GAN}{5}{section.2}}
\@writefile{lof}{\contentsline {figure}{\numberline {2}{\ignorespaces The data flow of CGAN. \relax }}{5}{figure.caption.3}}
\@writefile{toc}{\contentsline {section}{\numberline {3}Cycle consistency GAN}{6}{section.3}}
\@writefile{lof}{\contentsline {figure}{\numberline {3}{\ignorespaces Example results from Cycle GAN. \relax }}{6}{figure.caption.4}}
\@writefile{lof}{\contentsline {figure}{\numberline {4}{\ignorespaces The structure of Cycle GAN. \relax }}{6}{figure.caption.5}}
\@writefile{toc}{\contentsline {subsection}{\numberline {3.1}Loss function}{7}{subsection.3.1}}
\@writefile{toc}{\contentsline {section}{\numberline {4}Variational autoencoder(VAE)}{7}{section.4}}
\@writefile{lof}{\contentsline {figure}{\numberline {5}{\ignorespaces The structure of VAE. \relax }}{7}{figure.caption.6}}
\@writefile{toc}{\contentsline {subsection}{\numberline {4.1}Key ideas}{8}{subsection.4.1}}
\@writefile{lof}{\contentsline {figure}{\numberline {6}{\ignorespaces Generation based on latent variable \relax }}{8}{figure.caption.7}}
\@writefile{toc}{\contentsline {section}{\numberline {5}UNIT network}{9}{section.5}}
\@writefile{lof}{\contentsline {figure}{\numberline {7}{\ignorespaces Examples results of UNIT network\relax }}{9}{figure.caption.8}}
\@writefile{lof}{\contentsline {figure}{\numberline {8}{\ignorespaces The strucutre of UNIT GAN.\relax }}{10}{figure.caption.9}}
\newlabel{fig:The strucutre of UNIT GAN}{{8}{10}{The strucutre of UNIT GAN.\relax \relax }{figure.caption.9}{}}
\@writefile{toc}{\contentsline {section}{\numberline {6}Others}{11}{section.6}}
\@writefile{toc}{\contentsline {subsection}{\numberline {6.1}Deep convolutional GAN(DCGAN)}{11}{subsection.6.1}}
\@writefile{toc}{\contentsline {subsection}{\numberline {6.2}The problem of original loss function and the Wasserstin GAN}{11}{subsection.6.2}}
\@writefile{lof}{\contentsline {figure}{\numberline {9}{\ignorespaces The distance between two probabilities\relax }}{11}{figure.caption.10}}
\newlabel{fig:The distance between two probabilities}{{9}{11}{The distance between two probabilities\relax \relax }{figure.caption.10}{}}
\@writefile{toc}{\contentsline {subsubsection}{\numberline {6.2.1}Implementation hints}{12}{subsubsection.6.2.1}}
\@writefile{toc}{\contentsline {subsection}{\numberline {6.3}Maximum mean disc(MMD)}{12}{subsection.6.3}}
\@writefile{toc}{\contentsline {subsection}{\numberline {6.4}Notation}{12}{subsection.6.4}}
\@writefile{toc}{\contentsline {subsection}{\numberline {6.5}Equations}{13}{subsection.6.5}}
